<?xml version="1.0" encoding="utf-8"?>
<!-- Generator: Adobe Illustrator 23.0.0, SVG Export Plug-In . SVG Version: 6.00 Build 0)  -->
<svg version="1.1" id="Layer_1" xmlns="http://www.w3.org/2000/svg" xmlns:xlink="http://www.w3.org/1999/xlink" x="0px" y="0px"
	 viewBox="0 0 512 512" style="enable-background:new 0 0 512 512;" xml:space="preserve">
<style type="text/css">
	.st0{fill:#FFFFFF;}
</style>
<g>
	<g>
		<path d="M256,0C153.8,0,70.6,83.2,70.6,185.4c0,126.9,165.9,313.2,173,321c6.6,7.4,18.2,7.4,24.8,0c7.1-7.9,173-194.1,173-321
			C441.4,83.2,358.2,0,256,0z"/>
	</g>
</g>
<ellipse transform="matrix(0.9876 -0.1572 0.1572 0.9876 -25.9595 42.5355)" class="st0" cx="256" cy="185.4" rx="150" ry="150"/>
<path d="M255.3,177.8c13.8,0,25.8-5,35.5-14.7c9.8-9.8,14.7-21.7,14.7-35.5c0-13.8-5-25.8-14.7-35.5c-9.8-9.8-21.7-14.7-35.5-14.7
	c-13.8,0-25.8,5-35.5,14.7S205,113.7,205,127.5c0,13.8,5,25.8,14.7,35.5C229.5,172.8,241.5,177.8,255.3,177.8z"/>
<path d="M343.2,237.7c-0.3-4.1-0.9-8.5-1.7-13.2c-0.8-4.7-1.9-9.2-3.2-13.3c-1.3-4.2-3.2-8.4-5.4-12.4c-2.4-4.1-5.1-7.7-8.2-10.7
	c-3.2-3.1-7.2-5.6-11.8-7.4c-4.6-1.8-9.6-2.7-15.1-2.7c-2.1,0-4.2,0.9-8.2,3.5c-2.4,1.6-5.3,3.4-8.5,5.5c-2.7,1.7-6.4,3.4-11,4.9
	c-4.5,1.4-9,2.2-13.5,2.2c-4.5,0-9-0.7-13.5-2.2c-4.6-1.5-8.3-3.1-11-4.8c-3.2-2-6-3.9-8.5-5.5c-4-2.6-6-3.5-8.2-3.5
	c-5.4,0-10.5,0.9-15.1,2.7c-4.6,1.8-8.6,4.3-11.8,7.4c-3.1,3-5.9,6.6-8.2,10.7c-2.3,4-4.1,8.1-5.4,12.4c-1.3,4.1-2.4,8.5-3.2,13.3
	c-0.8,4.7-1.4,9.1-1.7,13.2c-0.3,4-0.4,8.1-0.4,12.3c0,10.9,3.5,19.7,10.3,26.2c6.7,6.4,15.7,9.7,26.5,9.7h100.5
	c10.9,0,19.8-3.3,26.5-9.7c6.8-6.5,10.3-15.3,10.3-26.2C343.6,245.8,343.5,241.7,343.2,237.7z"/>
</svg>
