<?xml version="1.0" encoding="utf-8"?>
<!-- Generator: Adobe Illustrator 23.0.0, SVG Export Plug-In . SVG Version: 6.00 Build 0)  -->
<svg version="1.1" id="Bold" xmlns="http://www.w3.org/2000/svg" xmlns:xlink="http://www.w3.org/1999/xlink" x="0px" y="0px"
	 viewBox="0 0 512 512" style="enable-background:new 0 0 512 512;" xml:space="preserve">
<style type="text/css">
	.st0{fill:#FFFFFF;}
</style>
<path class="st0" d="M107.3,418.7c-12.2,37.2,17.1,75.2,55.7,71.8c27.4-2.4,48.1-25.2,49.2-52.3
	C215.5,375.4,126.9,358.5,107.3,418.7L107.3,418.7z M174.2,435.3c0,9.8-6.8,17.8-15.1,17.8c-10.9,0-17.7-13.1-14.2-23.7
	c5.5-18.3,28.6-14.2,29.3,5.2V435.3z"/>
<path class="st0" d="M393.5,416.2c-8.3-22.2-30.4-37.1-54.9-34.9c-30.5,2.7-51.9,30.4-49,59.3c2.6,30.1,28.7,52.5,58.3,49.9
	C383.4,487.3,406.4,450.3,393.5,416.2L393.5,416.2z M343.8,453.1c-20.1,0-20.1-35.5,0-35.5C363.7,417.6,363.8,453.1,343.8,453.1z"/>
<path class="st0" d="M141.2,73.9c-122.7,98.6-39,227.2-114.3,227.2c-22.2,0-34.7,25.8-21.5,43.7c23.6,31.9,53.5,53.1,85.4,67.2
	c26.9-79.2,143.3-56.3,139.3,26.9c7.6,0.2,34,0.2,41.6,0.2c-1.9-41.9,30.7-76.1,71.7-76.1c28.7,0,54.9,17.9,65.9,44.6
	c41.1-24.8,77-64.7,92.3-111.9C567.3,93.3,315-65.7,141.2,73.9L141.2,73.9z M341.1,154.3c14.3,0,25.8,11.7,25.8,26.2
	c0,14.4-11.5,26.2-25.8,26.2c-14.2,0-25.8-11.7-25.8-26.2C315.3,166,326.9,154.3,341.1,154.3L341.1,154.3z M218,158.4
	c14.2,0,25.8,11.7,25.8,26.2c0,14.5-11.6,26.2-25.8,26.2s-25.8-11.7-25.8-26.2C192.2,170.1,203.8,158.4,218,158.4L218,158.4z
	 M373.9,259.3c-7.9,33.8-42.7,64.4-91.2,65.7c-42,2.8-88.8-29.2-93.6-71.9c-2.1-17.9,24.6-21,26.6-3.1c3.3,29.1,37.4,48.5,66.2,47.7
	c36.6-1,60.8-23.3,65.8-44.8c1.7-7.3,8.9-11.8,16.2-10.2C371.1,244.7,375.6,252,373.9,259.3L373.9,259.3z"/>
</svg>
